{
    "code": 0,
    "message": "成功！",
    "data": {
        "list": [
            {
                "id": "5c9c36c6b5913534f00aad4b",
                "title": "Koa2 + typescript + mongodb 搭建后端restful API",
                "keyword": "typescript, koa2, mongodb",
                "descript": "simple descript",
                "content": "a lot of content",
                "state": 1,
                "publish": 1,
                "thumb": "https://www.img.com",
                "type": 1,
                "tags": [
                    {
                        "id": "5c98c6969a6275a059ed556c",
                        "name": "typescript",
                        "descript": "Javascript的超集",
                        "sort": 1,
                        "createAt": "2019-03-25T12:16:22.937Z",
                        "updateAt": "2019-03-25T13:08:04.238Z"
                    }
                ],
                "createAt": "2019-03-28T02:51:50.414Z",
                "updateAt": "2019-03-28T02:51:50.414Z",
                "meta": {
                    "views": 0,
                    "comments": 0,
                    "likes": 0
                }
            },
            {
                "id": "5c9c36c6b5913534f00aad4a",
                "title": "Koa2 + typescript + mongodb 搭建后端restful API",
                "keyword": "typescript, koa2, mongodb",
                "descript": "simple descript",
                "content": "a lot of content",
                "state": 2,
                "publish": 1,
                "thumb": "https://www.img.com",
                "type": 1,
                "tags": [
                    {
                        "id": "5c98c6969a6275a059ed556c",
                        "name": "typescript",
                        "descript": "Javascript的超集",
                        "sort": 1,
                        "createAt": "2019-03-25T12:16:22.937Z",
                        "updateAt": "2019-03-25T13:08:04.238Z"
                    }
                ],
                "createAt": "2019-03-28T02:51:50.414Z",
                "updateAt": "2019-03-28T02:51:50.414Z",
                "meta": {
                    "views": 0,
                    "comments": 0,
                    "likes": 0
                }
            }
        ],
        "pagination": {
            "total": 10,
            "totalPage": 5,
            "pageNo": 1,
            "pageSize": 2
        }
    }
}